…
```r
gene_t<-gene_t%>%
  mutate(Name=gsub("\\..*","",Name))
```


```r
nope<-distinct(gene_d,geneSymbol,geneId)%>%
  mutate(is=geneSymbol %in% gene_t$Description)%>%
  filter(!is)
nope
```

```
## # A tibble: 247 x 3
##    geneSymbol geneId is   
##    <chr>       <dbl> <lgl>
##  1 ALPG          251 FALSE
##  2 ATP5F1A       498 FALSE
##  3 ATP5F1B       506 FALSE
##  4 ATP5F1D       513 FALSE
##  5 ATP5F1E       514 FALSE
##  6 ATP5PF        522 FALSE
##  7 CECR         1055 FALSE
##  8 DCR          1637 FALSE
##  9 GSDME        1687 FALSE
## 10 DGCR         1714 FALSE
## # … with 237 more rows
```
…
# Analysis

Now we have the disease-gene relationship data and tissue-gene tpm data

```r
gene_dd
```

```
## # A tibble: 80,534 x 16
##    geneId geneSymbol   DSI   DPI diseaseId diseaseName diseaseType diseaseClass
##     <dbl> <chr>      <dbl> <dbl> <chr>     <chr>       <chr>       <chr>       
##  1      1 A1BG       0.857 0.172 C0019209  Hepatomega… phenotype   C06;C23     
##  2      1 A1BG       0.857 0.172 C0036341  Schizophre… disease     F03         
##  3      2 A2M        0.564 0.724 C0002395  Alzheimer'… disease     C10;F03     
##  4      2 A2M        0.564 0.724 C0007102  Malignant … disease     C04;C06     
##  5      2 A2M        0.564 0.724 C0009375  Colonic Ne… group       C04;C06     
##  6      2 A2M        0.564 0.724 C0011265  Presenile … disease     C10;F03     
##  7      2 A2M        0.564 0.724 C0011570  Mental Dep… disease     F01         
##  8      2 A2M        0.564 0.724 C0011581  Depressive… disease     F03         
##  9      2 A2M        0.564 0.724 C0019202  Hepatolent… disease     C06;C10;C16…
## 10      2 A2M        0.564 0.724 C0022660  Kidney Fai… disease     C12;C13     
## # … with 80,524 more rows, and 8 more variables: diseaseSemanticType <chr>,
## #   score <dbl>, EI <dbl>, YearInitial <dbl>, YearFinal <dbl>, NofPmids <dbl>,
## #   NofSnps <dbl>, source <chr>
```

```r
gene_t
```

```
## # A tibble: 56,200 x 56
##    Name  Description `Adipose - Subc… `Adipose - Visc… `Adrenal Gland`
##    <chr> <chr>                  <dbl>            <dbl>           <dbl>
##  1 ENSG… DDX11L1               0                0               0     
##  2 ENSG… WASH7P                4.06             3.37            2.69  
##  3 ENSG… MIR6859-1             0                0               0     
##  4 ENSG… MIR1302-2HG           0                0               0     
##  5 ENSG… FAM138A               0                0               0     
##  6 ENSG… OR4G4P                0                0               0.0364
##  7 ENSG… OR4G11P               0.0406           0.0407          0.0544
##  8 ENSG… OR4F5                 0.0454           0.0446          0.0580
##  9 ENSG… RP11-34P13…           0.0184           0.0215          0.0162
## 10 ENSG… CICP27                0.0193           0.0376          0.0154
## # … with 56,190 more rows, and 51 more variables: `Artery - Aorta` <dbl>,
## #   `Artery - Coronary` <dbl>, `Artery - Tibial` <dbl>, Bladder <dbl>, `Brain -
## #   Amygdala` <dbl>, `Brain - Anterior cingulate cortex (BA24)` <dbl>, `Brain -
## #   Caudate (basal ganglia)` <dbl>, `Brain - Cerebellar Hemisphere` <dbl>,
## #   `Brain - Cerebellum` <dbl>, `Brain - Cortex` <dbl>, `Brain - Frontal Cortex
## #   (BA9)` <dbl>, `Brain - Hippocampus` <dbl>, `Brain - Hypothalamus` <dbl>,
## #   `Brain - Nucleus accumbens (basal ganglia)` <dbl>, `Brain - Putamen (basal
## #   ganglia)` <dbl>, `Brain - Spinal cord (cervical c-1)` <dbl>, `Brain -
## #   Substantia nigra` <dbl>, `Breast - Mammary Tissue` <dbl>, `Cells - Cultured
…
Next step is (quite complicated)... 
For each disease, there are several genes realted to it,(disgenet data) we sum up the expression level of each of these genes in each tissue to gain the disease-tissue relationship.


```r
gene_ddd
```

```
## # A tibble: 80,534 x 16
##    geneId geneSymbol   DSI   DPI diseaseId diseaseName diseaseType diseaseClass
##     <dbl> <chr>      <dbl> <dbl> <chr>     <chr>       <chr>       <chr>       
##  1   3440 IFNA2      0.459 0.793 C0000737  Abdominal … phenotype   C23         
##  2   4547 MTTP       0.526 0.69  C0000744  Abetalipop… disease     C16;C18     
##  3    156 GRK2       0.580 0.517 C0000768  Congenital… group       C16         
##  4   1295 COL8A1     0.727 0.448 C0000768  Congenital… group       C16         
##  5   1317 SLC31A1    0.681 0.379 C0000768  Congenital… group       C16         
##  6   2138 EYA1       0.559 0.655 C0000768  Congenital… group       C16         
##  7   2332 FMR1       0.492 0.69  C0000768  Congenital… group       C16         
##  8   2348 FOLR1      0.557 0.724 C0000768  Congenital… group       C16         
##  9   4851 NOTCH1     0.415 0.759 C0000768  Congenital… group       C16         
## 10   6299 SALL1      0.619 0.69  C0000768  Congenital… group       C16         
## # … with 80,524 more rows, and 8 more variables: diseaseSemanticType <chr>,
## #   score <dbl>, EI <dbl>, YearInitial <dbl>, YearFinal <dbl>, NofPmids <dbl>,
## #   NofSnps <dbl>, source <chr>
```

```r
gene_t
```

```
## # A tibble: 56,200 x 56
##    Name  Description `Adipose - Subc… `Adipose - Visc… `Adrenal Gland`
##    <chr> <chr>                  <dbl>            <dbl>           <dbl>
##  1 ENSG… DDX11L1               0                0               0     
##  2 ENSG… WASH7P                4.06             3.37            2.69  
##  3 ENSG… MIR6859-1             0                0               0     
##  4 ENSG… MIR1302-2HG           0                0               0     
##  5 ENSG… FAM138A               0                0               0     
##  6 ENSG… OR4G4P                0                0               0.0364
##  7 ENSG… OR4G11P               0.0406           0.0407          0.0544
##  8 ENSG… OR4F5                 0.0454           0.0446          0.0580
##  9 ENSG… RP11-34P13…           0.0184           0.0215          0.0162
## 10 ENSG… CICP27                0.0193           0.0376          0.0154
## # … with 56,190 more rows, and 51 more variables: `Artery - Aorta` <dbl>,
## #   `Artery - Coronary` <dbl>, `Artery - Tibial` <dbl>, Bladder <dbl>, `Brain -
## #   Amygdala` <dbl>, `Brain - Anterior cingulate cortex (BA24)` <dbl>, `Brain -
## #   Caudate (basal ganglia)` <dbl>, `Brain - Cerebellar Hemisphere` <dbl>,
## #   `Brain - Cerebellum` <dbl>, `Brain - Cortex` <dbl>, `Brain - Frontal Cortex
## #   (BA9)` <dbl>, `Brain - Hippocampus` <dbl>, `Brain - Hypothalamus` <dbl>,
## #   `Brain - Nucleus accumbens (basal ganglia)` <dbl>, `Brain - Putamen (basal
## #   ganglia)` <dbl>, `Brain - Spinal cord (cervical c-1)` <dbl>, `Brain -
## #   Substantia nigra` <dbl>, `Breast - Mammary Tissue` <dbl>, `Cells - Cultured
…
